         run       event       nTopo   nIdTracks       nJets      nMuons       nElec   nTrueElec   nFakeElec       nPhot   nTruePhot   nFakePhot
      284500    87473001         122         131           4           1           8           2           6           7           4           3
      284500    87473014          83          80           6           0          10           1           9           7           5           2
      284500    87473022          38          30           4           0           4           1           3           2           1           1
      284500    87473032          30          33           4           1          10           4           6           5           2           3
      284500    87473037          62          38           7           0          12           2          10           6           4           2
      284500    87473040         107          97          10           1          17           1          16          10           5           5
      284500    87473051         140         112          11           1          16           1          15          23          16           7
      284500    87473063          62          76           5           2           7           1           6           6           4           2
      284500    87473068          25          34           1           1           0           0           0           0           0           0
      284500    87473075          60          87           6           0           5           0           5           7           6           1
      284500    87473084          78          87           7           2          14           1          13          10           4           6
      284500    87473091          41          49           3           0           4           2           2           4           2           2
      284500    87473096          66          75           3           2           3           0           3           4           3           1
      284500    87473104          64          63           6           0           6           1           5           4           3           1
      284500    87473114          89          80           7           2          12           1          11           9           6           3
      284500    87473121          93         101           6           3          15           3          12           7           6           1
      284500    87473132          84          58           9           1          12           0          12           3           3           0
      284500    87473137          94          71           8           3          15           0          15           8           8           0
      284500    87473144          78          68           7           1           8           2           6           8           6           2
      284500    87473154          86          88           7           0          14           3          11           9           4           5
      284500    87473162          53          52           4           0           7           0           7           3           2           1
      284500    87473167          77          55           6           3          14           3          11          13           8           5
      284500    87473171          77          70           8           3           4           2           2           5           4           1
      284500    87473184          75          86           5           2           8           1           7           5           3           2
      284500    87473192          55          52           4           1           7           4           3           5           4           1
